id;col_date:date;col_datetime:timestamp;col_decimal:decimal;comments
1;17/02/2012;17/02/2012 01:02:03;1524.49;TODO: how to allow comma decimal separator?
2;2012-02-07;2012-02-17 01:02:03;1524.49;
3;2012/02/17;2012/02/17 01:02:03;1524.49;
